{
  "cod": "200",
  "message": 0,
  "cnt": 40,
  "list": [
    {
      "dt": 1596985200,
      "main": {
        "temp": 306.84,
        "feels_like": 304.88,
        "temp_min": 306.78,
        "temp_max": 306.84,
        "pressure": 1016,
        "sea_level": 1015,
        "grnd_level": 991,
        "humidity": 25,
        "temp_kf": 0.06
      },
      "weather": [
        {
          "id": 800,
          "main": "Clear",
          "description": "clear sky",
          "icon": "01d"
        }
      ],
      "clouds": { "all": 0 },
      "wind": { "speed": 3.22, "deg": 120 },
      "visibility": 10000,
      "pop": 0,
      "sys": { "pod": "d" },
      "dt_txt": "2020-08-09 15:00:00"
    },
    {
      "dt": 1596996000,
      "main": {
        "temp": 303.69,
        "feels_like": 303.53,
        "temp_min": 302.81,
        "temp_max": 303.69,
        "pressure": 1015,
        "sea_level": 1014,
        "grnd_level": 990,
        "humidity": 36,
        "temp_kf": 0.88
      },
      "weather": [
        {
          "id": 800,
          "main": "Clear",
          "description": "clear sky",
          "icon": "01d"
        }
      ],
      "clouds": { "all": 0 },
      "wind": { "speed": 1.91, "deg": 83 },
      "visibility": 10000,
      "pop": 0,
      "sys": { "pod": "d" },
      "dt_txt": "2020-08-09 18:00:00"
    },
    {
      "dt": 1597006800,
      "main": {
        "temp": 298.53,
        "feels_like": 298.64,
        "temp_min": 297.96,
        "temp_max": 298.53,
        "pressure": 1015,
        "sea_level": 1015,
        "grnd_level": 991,
        "humidity": 51,
        "temp_kf": 0.57
      },
      "weather": [
        {
          "id": 800,
          "main": "Clear",
          "description": "clear sky",
          "icon": "01n"
        }
      ],
      "clouds": { "all": 1 },
      "wind": { "speed": 1.9, "deg": 91 },
      "visibility": 10000,
      "pop": 0.02,
      "sys": { "pod": "n" },
      "dt_txt": "2020-08-09 21:00:00"
    },
    {
      "dt": 1597017600,
      "main": {
        "temp": 295.96,
        "feels_like": 296.11,
        "temp_min": 295.87,
        "temp_max": 295.96,
        "pressure": 1015,
        "sea_level": 1015,
        "grnd_level": 991,
        "humidity": 60,
        "temp_kf": 0.09
      },
      "weather": [
        {
          "id": 800,
          "main": "Clear",
          "description": "clear sky",
          "icon": "01n"
        }
      ],
      "clouds": { "all": 5 },
      "wind": { "speed": 1.91, "deg": 71 },
      "visibility": 10000,
      "pop": 0.07,
      "sys": { "pod": "n" },
      "dt_txt": "2020-08-10 00:00:00"
    },
    {
      "dt": 1597028400,
      "main": {
        "temp": 294.57,
        "feels_like": 294.97,
        "temp_min": 294.57,
        "temp_max": 294.57,
        "pressure": 1015,
        "sea_level": 1015,
        "grnd_level": 990,
        "humidity": 66,
        "temp_kf": 0
      },
      "weather": [
        {
          "id": 802,
          "main": "Clouds",
          "description": "scattered clouds",
          "icon": "03n"
        }
      ],
      "clouds": { "all": 46 },
      "wind": { "speed": 1.64, "deg": 76 },
      "visibility": 10000,
      "pop": 0.36,
      "sys": { "pod": "n" },
      "dt_txt": "2020-08-10 03:00:00"
    },
    {
      "dt": 1597039200,
      "main": {
        "temp": 295.94,
        "feels_like": 296.31,
        "temp_min": 295.94,
        "temp_max": 295.94,
        "pressure": 1014,
        "sea_level": 1014,
        "grnd_level": 990,
        "humidity": 64,
        "temp_kf": 0
      },
      "weather": [
        {
          "id": 802,
          "main": "Clouds",
          "description": "scattered clouds",
          "icon": "03d"
        }
      ],
      "clouds": { "all": 48 },
      "wind": { "speed": 2.1, "deg": 65 },
      "visibility": 10000,
      "pop": 0.29,
      "sys": { "pod": "d" },
      "dt_txt": "2020-08-10 06:00:00"
    },
    {
      "dt": 1597050000,
      "main": {
        "temp": 302.1,
        "feels_like": 302.07,
        "temp_min": 302.1,
        "temp_max": 302.1,
        "pressure": 1015,
        "sea_level": 1015,
        "grnd_level": 991,
        "humidity": 45,
        "temp_kf": 0
      },
      "weather": [
        {
          "id": 800,
          "main": "Clear",
          "description": "clear sky",
          "icon": "01d"
        }
      ],
      "clouds": { "all": 1 },
      "wind": { "speed": 2.78, "deg": 98 },
      "visibility": 10000,
      "pop": 0,
      "sys": { "pod": "d" },
      "dt_txt": "2020-08-10 09:00:00"
    },
    {
      "dt": 1597060800,
      "main": {
        "temp": 305.54,
        "feels_like": 304.36,
        "temp_min": 305.54,
        "temp_max": 305.54,
        "pressure": 1014,
        "sea_level": 1014,
        "grnd_level": 990,
        "humidity": 33,
        "temp_kf": 0
      },
      "weather": [
        {
          "id": 801,
          "main": "Clouds",
          "description": "few clouds",
          "icon": "02d"
        }
      ],
      "clouds": { "all": 20 },
      "wind": { "speed": 3.51, "deg": 101 },
      "visibility": 10000,
      "pop": 0,
      "sys": { "pod": "d" },
      "dt_txt": "2020-08-10 12:00:00"
    },
    {
      "dt": 1597071600,
      "main": {
        "temp": 305.5,
        "feels_like": 304.26,
        "temp_min": 305.5,
        "temp_max": 305.5,
        "pressure": 1013,
        "sea_level": 1013,
        "grnd_level": 989,
        "humidity": 33,
        "temp_kf": 0
      },
      "weather": [
        {
          "id": 804,
          "main": "Clouds",
          "description": "overcast clouds",
          "icon": "04d"
        }
      ],
      "clouds": { "all": 100 },
      "wind": { "speed": 3.58, "deg": 103 },
      "visibility": 10000,
      "pop": 0,
      "sys": { "pod": "d" },
      "dt_txt": "2020-08-10 15:00:00"
    },
    {
      "dt": 1597082400,
      "main": {
        "temp": 301.92,
        "feels_like": 302.25,
        "temp_min": 301.92,
        "temp_max": 301.92,
        "pressure": 1013,
        "sea_level": 1013,
        "grnd_level": 989,
        "humidity": 47,
        "temp_kf": 0
      },
      "weather": [
        {
          "id": 804,
          "main": "Clouds",
          "description": "overcast clouds",
          "icon": "04d"
        }
      ],
      "clouds": { "all": 100 },
      "wind": { "speed": 2.55, "deg": 54 },
      "visibility": 10000,
      "pop": 0,
      "sys": { "pod": "d" },
      "dt_txt": "2020-08-10 18:00:00"
    },
    {
      "dt": 1597093200,
      "main": {
        "temp": 297.74,
        "feels_like": 297.69,
        "temp_min": 297.74,
        "temp_max": 297.74,
        "pressure": 1014,
        "sea_level": 1014,
        "grnd_level": 990,
        "humidity": 58,
        "temp_kf": 0
      },
      "weather": [
        {
          "id": 802,
          "main": "Clouds",
          "description": "scattered clouds",
          "icon": "03n"
        }
      ],
      "clouds": { "all": 35 },
      "wind": { "speed": 2.79, "deg": 63 },
      "visibility": 10000,
      "pop": 0.23,
      "sys": { "pod": "n" },
      "dt_txt": "2020-08-10 21:00:00"
    },
    {
      "dt": 1597104000,
      "main": {
        "temp": 295.96,
        "feels_like": 295.93,
        "temp_min": 295.96,
        "temp_max": 295.96,
        "pressure": 1014,
        "sea_level": 1014,
        "grnd_level": 990,
        "humidity": 66,
        "temp_kf": 0
      },
      "weather": [
        {
          "id": 801,
          "main": "Clouds",
          "description": "few clouds",
          "icon": "02n"
        }
      ],
      "clouds": { "all": 23 },
      "wind": { "speed": 2.95, "deg": 65 },
      "visibility": 10000,
      "pop": 0.26,
      "sys": { "pod": "n" },
      "dt_txt": "2020-08-11 00:00:00"
    },
    {
      "dt": 1597114800,
      "main": {
        "temp": 294.69,
        "feels_like": 294.91,
        "temp_min": 294.69,
        "temp_max": 294.69,
        "pressure": 1014,
        "sea_level": 1014,
        "grnd_level": 990,
        "humidity": 70,
        "temp_kf": 0
      },
      "weather": [
        {
          "id": 804,
          "main": "Clouds",
          "description": "overcast clouds",
          "icon": "04n"
        }
      ],
      "clouds": { "all": 94 },
      "wind": { "speed": 2.43, "deg": 70 },
      "visibility": 10000,
      "pop": 0,
      "sys": { "pod": "n" },
      "dt_txt": "2020-08-11 03:00:00"
    },
    {
      "dt": 1597125600,
      "main": {
        "temp": 295.63,
        "feels_like": 296.48,
        "temp_min": 295.63,
        "temp_max": 295.63,
        "pressure": 1015,
        "sea_level": 1015,
        "grnd_level": 990,
        "humidity": 69,
        "temp_kf": 0
      },
      "weather": [
        {
          "id": 803,
          "main": "Clouds",
          "description": "broken clouds",
          "icon": "04d"
        }
      ],
      "clouds": { "all": 78 },
      "wind": { "speed": 1.9, "deg": 85 },
      "visibility": 10000,
      "pop": 0,
      "sys": { "pod": "d" },
      "dt_txt": "2020-08-11 06:00:00"
    },
    {
      "dt": 1597136400,
      "main": {
        "temp": 301.45,
        "feels_like": 302.01,
        "temp_min": 301.45,
        "temp_max": 301.45,
        "pressure": 1015,
        "sea_level": 1015,
        "grnd_level": 991,
        "humidity": 51,
        "temp_kf": 0
      },
      "weather": [
        {
          "id": 803,
          "main": "Clouds",
          "description": "broken clouds",
          "icon": "04d"
        }
      ],
      "clouds": { "all": 52 },
      "wind": { "speed": 2.71, "deg": 96 },
      "visibility": 10000,
      "pop": 0,
      "sys": { "pod": "d" },
      "dt_txt": "2020-08-11 09:00:00"
    },
    {
      "dt": 1597147200,
      "main": {
        "temp": 305.15,
        "feels_like": 304.45,
        "temp_min": 305.15,
        "temp_max": 305.15,
        "pressure": 1014,
        "sea_level": 1014,
        "grnd_level": 991,
        "humidity": 36,
        "temp_kf": 0
      },
      "weather": [
        {
          "id": 802,
          "main": "Clouds",
          "description": "scattered clouds",
          "icon": "03d"
        }
      ],
      "clouds": { "all": 26 },
      "wind": { "speed": 3.32, "deg": 97 },
      "visibility": 10000,
      "pop": 0,
      "sys": { "pod": "d" },
      "dt_txt": "2020-08-11 12:00:00"
    },
    {
      "dt": 1597158000,
      "main": {
        "temp": 305.63,
        "feels_like": 304.77,
        "temp_min": 305.63,
        "temp_max": 305.63,
        "pressure": 1014,
        "sea_level": 1014,
        "grnd_level": 990,
        "humidity": 34,
        "temp_kf": 0
      },
      "weather": [
        {
          "id": 800,
          "main": "Clear",
          "description": "clear sky",
          "icon": "01d"
        }
      ],
      "clouds": { "all": 0 },
      "wind": { "speed": 3.31, "deg": 92 },
      "visibility": 10000,
      "pop": 0,
      "sys": { "pod": "d" },
      "dt_txt": "2020-08-11 15:00:00"
    },
    {
      "dt": 1597168800,
      "main": {
        "temp": 301.89,
        "feels_like": 302.35,
        "temp_min": 301.89,
        "temp_max": 301.89,
        "pressure": 1013,
        "sea_level": 1013,
        "grnd_level": 989,
        "humidity": 47,
        "temp_kf": 0
      },
      "weather": [
        {
          "id": 800,
          "main": "Clear",
          "description": "clear sky",
          "icon": "01d"
        }
      ],
      "clouds": { "all": 2 },
      "wind": { "speed": 2.34, "deg": 50 },
      "visibility": 10000,
      "pop": 0,
      "sys": { "pod": "d" },
      "dt_txt": "2020-08-11 18:00:00"
    },
    {
      "dt": 1597179600,
      "main": {
        "temp": 298.04,
        "feels_like": 298.13,
        "temp_min": 298.04,
        "temp_max": 298.04,
        "pressure": 1014,
        "sea_level": 1014,
        "grnd_level": 990,
        "humidity": 59,
        "temp_kf": 0
      },
      "weather": [
        {
          "id": 800,
          "main": "Clear",
          "description": "clear sky",
          "icon": "01n"
        }
      ],
      "clouds": { "all": 0 },
      "wind": { "speed": 2.89, "deg": 84 },
      "visibility": 10000,
      "pop": 0.26,
      "sys": { "pod": "n" },
      "dt_txt": "2020-08-11 21:00:00"
    },
    {
      "dt": 1597190400,
      "main": {
        "temp": 295.41,
        "feels_like": 296.16,
        "temp_min": 295.41,
        "temp_max": 295.41,
        "pressure": 1014,
        "sea_level": 1014,
        "grnd_level": 990,
        "humidity": 72,
        "temp_kf": 0
      },
      "weather": [
        {
          "id": 800,
          "main": "Clear",
          "description": "clear sky",
          "icon": "01n"
        }
      ],
      "clouds": { "all": 0 },
      "wind": { "speed": 2.3, "deg": 75 },
      "visibility": 10000,
      "pop": 0.11,
      "sys": { "pod": "n" },
      "dt_txt": "2020-08-12 00:00:00"
    },
    {
      "dt": 1597201200,
      "main": {
        "temp": 294.39,
        "feels_like": 295.23,
        "temp_min": 294.39,
        "temp_max": 294.39,
        "pressure": 1014,
        "sea_level": 1014,
        "grnd_level": 989,
        "humidity": 76,
        "temp_kf": 0
      },
      "weather": [
        {
          "id": 801,
          "main": "Clouds",
          "description": "few clouds",
          "icon": "02n"
        }
      ],
      "clouds": { "all": 24 },
      "wind": { "speed": 2.11, "deg": 90 },
      "visibility": 10000,
      "pop": 0,
      "sys": { "pod": "n" },
      "dt_txt": "2020-08-12 03:00:00"
    },
    {
      "dt": 1597212000,
      "main": {
        "temp": 295.64,
        "feels_like": 295.89,
        "temp_min": 295.64,
        "temp_max": 295.64,
        "pressure": 1014,
        "sea_level": 1014,
        "grnd_level": 989,
        "humidity": 72,
        "temp_kf": 0
      },
      "weather": [
        {
          "id": 801,
          "main": "Clouds",
          "description": "few clouds",
          "icon": "02d"
        }
      ],
      "clouds": { "all": 12 },
      "wind": { "speed": 3.15, "deg": 82 },
      "visibility": 10000,
      "pop": 0,
      "sys": { "pod": "d" },
      "dt_txt": "2020-08-12 06:00:00"
    },
    {
      "dt": 1597222800,
      "main": {
        "temp": 300.86,
        "feels_like": 301.5,
        "temp_min": 300.86,
        "temp_max": 300.86,
        "pressure": 1014,
        "sea_level": 1014,
        "grnd_level": 990,
        "humidity": 57,
        "temp_kf": 0
      },
      "weather": [
        {
          "id": 800,
          "main": "Clear",
          "description": "clear sky",
          "icon": "01d"
        }
      ],
      "clouds": { "all": 0 },
      "wind": { "speed": 3.32, "deg": 97 },
      "visibility": 10000,
      "pop": 0,
      "sys": { "pod": "d" },
      "dt_txt": "2020-08-12 09:00:00"
    },
    {
      "dt": 1597233600,
      "main": {
        "temp": 305.03,
        "feels_like": 305,
        "temp_min": 305.03,
        "temp_max": 305.03,
        "pressure": 1013,
        "sea_level": 1013,
        "grnd_level": 989,
        "humidity": 38,
        "temp_kf": 0
      },
      "weather": [
        {
          "id": 800,
          "main": "Clear",
          "description": "clear sky",
          "icon": "01d"
        }
      ],
      "clouds": { "all": 0 },
      "wind": { "speed": 2.76, "deg": 107 },
      "visibility": 10000,
      "pop": 0,
      "sys": { "pod": "d" },
      "dt_txt": "2020-08-12 12:00:00"
    },
    {
      "dt": 1597244400,
      "main": {
        "temp": 305.81,
        "feels_like": 305.58,
        "temp_min": 305.81,
        "temp_max": 305.81,
        "pressure": 1011,
        "sea_level": 1011,
        "grnd_level": 988,
        "humidity": 34,
        "temp_kf": 0
      },
      "weather": [
        {
          "id": 800,
          "main": "Clear",
          "description": "clear sky",
          "icon": "01d"
        }
      ],
      "clouds": { "all": 4 },
      "wind": { "speed": 2.49, "deg": 95 },
      "visibility": 10000,
      "pop": 0,
      "sys": { "pod": "d" },
      "dt_txt": "2020-08-12 15:00:00"
    },
    {
      "dt": 1597255200,
      "main": {
        "temp": 301.84,
        "feels_like": 301.53,
        "temp_min": 301.84,
        "temp_max": 301.84,
        "pressure": 1010,
        "sea_level": 1010,
        "grnd_level": 986,
        "humidity": 48,
        "temp_kf": 0
      },
      "weather": [
        {
          "id": 800,
          "main": "Clear",
          "description": "clear sky",
          "icon": "01d"
        }
      ],
      "clouds": { "all": 9 },
      "wind": { "speed": 3.6, "deg": 68 },
      "visibility": 10000,
      "pop": 0,
      "sys": { "pod": "d" },
      "dt_txt": "2020-08-12 18:00:00"
    },
    {
      "dt": 1597266000,
      "main": {
        "temp": 298.52,
        "feels_like": 297.99,
        "temp_min": 298.52,
        "temp_max": 298.52,
        "pressure": 1012,
        "sea_level": 1012,
        "grnd_level": 987,
        "humidity": 60,
        "temp_kf": 0
      },
      "weather": [
        {
          "id": 800,
          "main": "Clear",
          "description": "clear sky",
          "icon": "01n"
        }
      ],
      "clouds": { "all": 0 },
      "wind": { "speed": 4.17, "deg": 94 },
      "visibility": 10000,
      "pop": 0.39,
      "sys": { "pod": "n" },
      "dt_txt": "2020-08-12 21:00:00"
    },
    {
      "dt": 1597276800,
      "main": {
        "temp": 295.2,
        "feels_like": 297.08,
        "temp_min": 295.2,
        "temp_max": 295.2,
        "pressure": 1012,
        "sea_level": 1012,
        "grnd_level": 987,
        "humidity": 75,
        "temp_kf": 0
      },
      "weather": [
        {
          "id": 500,
          "main": "Rain",
          "description": "light rain",
          "icon": "10n"
        }
      ],
      "clouds": { "all": 6 },
      "wind": { "speed": 0.95, "deg": 163 },
      "visibility": 10000,
      "pop": 0.46,
      "rain": { "3h": 0.25 },
      "sys": { "pod": "n" },
      "dt_txt": "2020-08-13 00:00:00"
    },
    {
      "dt": 1597287600,
      "main": {
        "temp": 293.67,
        "feels_like": 295.06,
        "temp_min": 293.67,
        "temp_max": 293.67,
        "pressure": 1011,
        "sea_level": 1011,
        "grnd_level": 986,
        "humidity": 83,
        "temp_kf": 0
      },
      "weather": [
        {
          "id": 802,
          "main": "Clouds",
          "description": "scattered clouds",
          "icon": "03n"
        }
      ],
      "clouds": { "all": 48 },
      "wind": { "speed": 1.72, "deg": 154 },
      "visibility": 10000,
      "pop": 0.31,
      "sys": { "pod": "n" },
      "dt_txt": "2020-08-13 03:00:00"
    },
    {
      "dt": 1597298400,
      "main": {
        "temp": 294.38,
        "feels_like": 296.57,
        "temp_min": 294.38,
        "temp_max": 294.38,
        "pressure": 1012,
        "sea_level": 1012,
        "grnd_level": 987,
        "humidity": 83,
        "temp_kf": 0
      },
      "weather": [
        {
          "id": 500,
          "main": "Rain",
          "description": "light rain",
          "icon": "10d"
        }
      ],
      "clouds": { "all": 67 },
      "wind": { "speed": 1, "deg": 182 },
      "visibility": 6659,
      "pop": 1,
      "rain": { "3h": 2.87 },
      "sys": { "pod": "d" },
      "dt_txt": "2020-08-13 06:00:00"
    },
    {
      "dt": 1597309200,
      "main": {
        "temp": 297.85,
        "feels_like": 299.53,
        "temp_min": 297.85,
        "temp_max": 297.85,
        "pressure": 1012,
        "sea_level": 1012,
        "grnd_level": 987,
        "humidity": 68,
        "temp_kf": 0
      },
      "weather": [
        {
          "id": 500,
          "main": "Rain",
          "description": "light rain",
          "icon": "10d"
        }
      ],
      "clouds": { "all": 99 },
      "wind": { "speed": 1.83, "deg": 227 },
      "visibility": 10000,
      "pop": 0.71,
      "rain": { "3h": 0.64 },
      "sys": { "pod": "d" },
      "dt_txt": "2020-08-13 09:00:00"
    },
    {
      "dt": 1597320000,
      "main": {
        "temp": 302.34,
        "feels_like": 303.46,
        "temp_min": 302.34,
        "temp_max": 302.34,
        "pressure": 1011,
        "sea_level": 1011,
        "grnd_level": 987,
        "humidity": 48,
        "temp_kf": 0
      },
      "weather": [
        {
          "id": 804,
          "main": "Clouds",
          "description": "overcast clouds",
          "icon": "04d"
        }
      ],
      "clouds": { "all": 99 },
      "wind": { "speed": 1.82, "deg": 222 },
      "visibility": 10000,
      "pop": 0.26,
      "sys": { "pod": "d" },
      "dt_txt": "2020-08-13 12:00:00"
    },
    {
      "dt": 1597330800,
      "main": {
        "temp": 302.37,
        "feels_like": 302.2,
        "temp_min": 302.37,
        "temp_max": 302.37,
        "pressure": 1010,
        "sea_level": 1010,
        "grnd_level": 986,
        "humidity": 46,
        "temp_kf": 0
      },
      "weather": [
        {
          "id": 804,
          "main": "Clouds",
          "description": "overcast clouds",
          "icon": "04d"
        }
      ],
      "clouds": { "all": 100 },
      "wind": { "speed": 3.29, "deg": 242 },
      "visibility": 10000,
      "pop": 0.15,
      "sys": { "pod": "d" },
      "dt_txt": "2020-08-13 15:00:00"
    },
    {
      "dt": 1597341600,
      "main": {
        "temp": 300.12,
        "feels_like": 300.85,
        "temp_min": 300.12,
        "temp_max": 300.12,
        "pressure": 1011,
        "sea_level": 1011,
        "grnd_level": 986,
        "humidity": 50,
        "temp_kf": 0
      },
      "weather": [
        {
          "id": 500,
          "main": "Rain",
          "description": "light rain",
          "icon": "10d"
        }
      ],
      "clouds": { "all": 100 },
      "wind": { "speed": 1.6, "deg": 205 },
      "visibility": 10000,
      "pop": 0.45,
      "rain": { "3h": 0.13 },
      "sys": { "pod": "d" },
      "dt_txt": "2020-08-13 18:00:00"
    },
    {
      "dt": 1597352400,
      "main": {
        "temp": 293.57,
        "feels_like": 293.69,
        "temp_min": 293.57,
        "temp_max": 293.57,
        "pressure": 1012,
        "sea_level": 1012,
        "grnd_level": 988,
        "humidity": 78,
        "temp_kf": 0
      },
      "weather": [
        {
          "id": 500,
          "main": "Rain",
          "description": "light rain",
          "icon": "10n"
        }
      ],
      "clouds": { "all": 98 },
      "wind": { "speed": 2.92, "deg": 238 },
      "visibility": 6478,
      "pop": 1,
      "rain": { "3h": 2.95 },
      "sys": { "pod": "n" },
      "dt_txt": "2020-08-13 21:00:00"
    },
    {
      "dt": 1597363200,
      "main": {
        "temp": 293.03,
        "feels_like": 293.57,
        "temp_min": 293.03,
        "temp_max": 293.03,
        "pressure": 1013,
        "sea_level": 1013,
        "grnd_level": 988,
        "humidity": 80,
        "temp_kf": 0
      },
      "weather": [
        {
          "id": 500,
          "main": "Rain",
          "description": "light rain",
          "icon": "10n"
        }
      ],
      "clouds": { "all": 98 },
      "wind": { "speed": 2.24, "deg": 244 },
      "visibility": 10000,
      "pop": 1,
      "rain": { "3h": 1.77 },
      "sys": { "pod": "n" },
      "dt_txt": "2020-08-14 00:00:00"
    },
    {
      "dt": 1597374000,
      "main": {
        "temp": 292.44,
        "feels_like": 292.38,
        "temp_min": 292.44,
        "temp_max": 292.44,
        "pressure": 1013,
        "sea_level": 1013,
        "grnd_level": 989,
        "humidity": 83,
        "temp_kf": 0
      },
      "weather": [
        {
          "id": 804,
          "main": "Clouds",
          "description": "overcast clouds",
          "icon": "04n"
        }
      ],
      "clouds": { "all": 100 },
      "wind": { "speed": 3.1, "deg": 256 },
      "visibility": 10000,
      "pop": 0.11,
      "sys": { "pod": "n" },
      "dt_txt": "2020-08-14 03:00:00"
    },
    {
      "dt": 1597384800,
      "main": {
        "temp": 291.6,
        "feels_like": 291.31,
        "temp_min": 291.6,
        "temp_max": 291.6,
        "pressure": 1014,
        "sea_level": 1014,
        "grnd_level": 990,
        "humidity": 85,
        "temp_kf": 0
      },
      "weather": [
        {
          "id": 804,
          "main": "Clouds",
          "description": "overcast clouds",
          "icon": "04d"
        }
      ],
      "clouds": { "all": 99 },
      "wind": { "speed": 3.19, "deg": 257 },
      "visibility": 10000,
      "pop": 0.06,
      "sys": { "pod": "d" },
      "dt_txt": "2020-08-14 06:00:00"
    },
    {
      "dt": 1597395600,
      "main": {
        "temp": 292.87,
        "feels_like": 292.1,
        "temp_min": 292.87,
        "temp_max": 292.87,
        "pressure": 1015,
        "sea_level": 1015,
        "grnd_level": 991,
        "humidity": 73,
        "temp_kf": 0
      },
      "weather": [
        {
          "id": 804,
          "main": "Clouds",
          "description": "overcast clouds",
          "icon": "04d"
        }
      ],
      "clouds": { "all": 99 },
      "wind": { "speed": 3.28, "deg": 276 },
      "visibility": 10000,
      "pop": 0.04,
      "sys": { "pod": "d" },
      "dt_txt": "2020-08-14 09:00:00"
    },
    {
      "dt": 1597406400,
      "main": {
        "temp": 296.4,
        "feels_like": 295.43,
        "temp_min": 296.4,
        "temp_max": 296.4,
        "pressure": 1015,
        "sea_level": 1015,
        "grnd_level": 991,
        "humidity": 55,
        "temp_kf": 0
      },
      "weather": [
        {
          "id": 804,
          "main": "Clouds",
          "description": "overcast clouds",
          "icon": "04d"
        }
      ],
      "clouds": { "all": 99 },
      "wind": { "speed": 3.04, "deg": 257 },
      "visibility": 10000,
      "pop": 0.04,
      "sys": { "pod": "d" },
      "dt_txt": "2020-08-14 12:00:00"
    }
  ],
  "city": {
    "id": 2945730,
    "name": "Bous",
    "coord": { "lat": 49.2833, "lon": 6.8 },
    "country": "DE",
    "population": 7605,
    "timezone": 7200,
    "sunrise": 1596946578,
    "sunset": 1596999619
  }
}
